<?xml version="1.0" encoding="UTF-8"?>
<testng-results skipped="0" failed="0" ignored="0" total="4" passed="4">
  <reporter-output>
  </reporter-output>
  <suite name="All Test Suite" duration-ms="19445" started-at="2018-02-14T09:20:38Z" finished-at="2018-02-14T09:20:58Z">
    <groups>
    </groups>
    <test name="E:/Projects/CartRozetka/src/test/java" duration-ms="19445" started-at="2018-02-14T09:20:38Z" finished-at="2018-02-14T09:20:58Z">
      <class name="ua.com.testmatick.tests.ActionsWithItemSuite">
        <test-method status="PASS" signature="setUp()[pri:0, instance:ua.com.testmatick.tests.ActionsWithItemSuite@2c6a3f77]" name="setUp" is-config="true" duration-ms="7076" started-at="2018-02-14T09:20:38Z" finished-at="2018-02-14T09:20:46Z">
          <reporter-output>
          </reporter-output>
        </test-method> <!-- setUp -->
        <test-method status="PASS" signature="findItemTest()[pri:0, instance:ua.com.testmatick.tests.ActionsWithItemSuite@2c6a3f77]" name="findItemTest" duration-ms="4052" started-at="2018-02-14T09:20:46Z" finished-at="2018-02-14T09:20:50Z">
          <reporter-output>
          </reporter-output>
        </test-method> <!-- findItemTest -->
        <test-method status="PASS" signature="addItemToCartTest()[pri:0, instance:ua.com.testmatick.tests.ActionsWithItemSuite@2c6a3f77]" name="addItemToCartTest" duration-ms="3188" started-at="2018-02-14T09:20:50Z" finished-at="2018-02-14T09:20:53Z">
          <reporter-output>
          </reporter-output>
        </test-method> <!-- addItemToCartTest -->
        <test-method status="PASS" signature="deleteItemFromCartTest()[pri:0, instance:ua.com.testmatick.tests.ActionsWithItemSuite@2c6a3f77]" name="deleteItemFromCartTest" duration-ms="1217" started-at="2018-02-14T09:20:53Z" finished-at="2018-02-14T09:20:54Z">
          <reporter-output>
          </reporter-output>
        </test-method> <!-- deleteItemFromCartTest -->
        <test-method status="PASS" signature="verifyEmptyCartTest()[pri:0, instance:ua.com.testmatick.tests.ActionsWithItemSuite@2c6a3f77]" name="verifyEmptyCartTest" duration-ms="3119" started-at="2018-02-14T09:20:54Z" finished-at="2018-02-14T09:20:57Z">
          <reporter-output>
          </reporter-output>
        </test-method> <!-- verifyEmptyCartTest -->
        <test-method status="PASS" signature="tearDown()[pri:0, instance:ua.com.testmatick.tests.ActionsWithItemSuite@2c6a3f77]" name="tearDown" is-config="true" duration-ms="769" started-at="2018-02-14T09:20:57Z" finished-at="2018-02-14T09:20:58Z">
          <reporter-output>
          </reporter-output>
        </test-method> <!-- tearDown -->
      </class> <!-- ua.com.testmatick.tests.ActionsWithItemSuite -->
    </test> <!-- E:/Projects/CartRozetka/src/test/java -->
  </suite> <!-- All Test Suite -->
</testng-results>
